{
  "type": "service_account",
  "project_id": "liceu-main",
  "private_key_id": "6cb8af01f97dd322b3b841a946434f894c69bc99",
  "private_key": "-----BEGIN PRIVATE KEY-----\nMIIEvgIBADANBgkqhkiG9w0BAQEFAASCBKgwggSkAgEAAoIBAQDDIPfV9kRmAr4h\nArdFPq583Wygjx4KSovbb2TzcVu2v5zJKIKOoM29H4iOL1N10V0MCIScIve/x1CD\nSqjyYitXG6Tp+6XmUzfHoL/6kus3BHI0z2ATSgG0ywGHykznWK0S18DX1hKbFYY5\ndrUaWgF0AyfxdOGoYwxXiqFxZxlQPgRW4RTCAr5QaTjiXwJmdWVJ7oZyqPJeIWVz\nAo9hr8QFTzDXgynuvsReDyABxXvW2VEdi9jp2DDVtdfVBhufuojyyfH/qNbZ6M/O\n2SZUZtZt2VIFCiRYxIWBFizCHAo+Ex8fZ7bHxg5rW5JOKPSRl5bShV/+dOU/AZA4\nz2wDZsenAgMBAAECggEARfo5xzrFNsw/ATmnHicnjlIeVcpdnJU1aOGfE4sQuA4p\nnR5xC9NxVSTM5Sjlxnfp5ZncbN5BeT5yilMpGZvJLTkVwG/mBB7N/0KP9r3fquBm\nULgaHXDKAdtX1infwIvVrc9AMmdsTr++XjdLJYMnyEIlfftLvgafc3mdAj1WH6ct\nq0QuYq27t5RLB/4GJyXvjPh840CswK9gCZtchCghI2ZAtW/sOcw9fUJIeYaBQe+H\nEFeHCHtjgK0XK6DE6TBbA3gc0aX9j3v9BvYZB44KMH4dX73IMHknZ4G8h9A5wA4Z\nCwVm61/fnnhByjPiXP+M+5zv2/14f9sDeIwoyW15IQKBgQDlq47/1pkuzM5IsRQh\nxxLsN9JW95+7s6Xoo/seeUT8KLZ62PN9FX0XlwGISHz89Mq5BuFmqEvZecwAEfPB\npGsze0fAeSDUyWQ7zamkm/cIkHKlhWnxTPBSHnPuqCofFWu/Xa7qnUbkefkQkmI5\nnjfvW1QsqP1ICbcKc3BojxckUQKBgQDZf61XMH1TX+wUJQnDGlA4iQq6DelajUox\nPRc2Lqdvsbs6Kf4X5odyiAh8s8Wd9CmH0+7/dngMmBYncRNeluyawRLDSbNFC+pW\nsV2wmrjUFBk4fKwa+LspLA0gqiDIHY5ocoqar1+N/sMFHEu9b3V16kIv76/KdjmX\nq/PlTFsGdwKBgGEtkBosYTBuNDKJyqzoINeWXwexSwMO5npjOBQS19+iEmQ0fAJH\nH2Dl4h4aHdiic0yK3sCjIUTpximZbvxWZ42m8hs8pWmjtSegw9EEtSgIhpoGs2cI\nWP9GJ2Op//ibBbY5G5Pl7GMsQPiEF8+tZJmAmUM0VccvZSWk5sE3GmGhAoGBALHM\n3SBkpF8vECfbq2JSNXgyF5HHY5dB33/nB/2kH/6AFaVTxMM3Ekz/haijsY4Rlo3S\nJBO0fikVfy7ZElOGH3/XDAaXTjTIq9YZApUntqawk3mI+YzG/wGGYGjuiwPsnYkm\n8cXITd4fgL/BxOzkm+o8CcV0NInXIfeqeyRcyiC7AoGBAIE5SUDXQgDqv+dCBRn6\nAM/LMWjZt88daSyRCXD2PZM+ns1JlnMygt3eHUtKfSSn4XNNfzospIIoQDa+dBCz\nHu9Xq0FUEM23eR2M2kcO9cS16OUuX1DkPQd66An33kEUJSoWevOFaCiPTgjuxQvp\npCfadh032Pd3rk8Y9r2ZhZUn\n-----END PRIVATE KEY-----\n",
  "client_email": "liceu-post-images@liceu-main.iam.gserviceaccount.com",
  "client_id": "113789572968603738162",
  "auth_uri": "https://accounts.google.com/o/oauth2/auth",
  "token_uri": "https://oauth2.googleapis.com/token",
  "auth_provider_x509_cert_url": "https://www.googleapis.com/oauth2/v1/certs",
  "client_x509_cert_url": "https://www.googleapis.com/robot/v1/metadata/x509/liceu-post-images%40liceu-main.iam.gserviceaccount.com"
}
